9adfa94b-654c-4179-a407-b21805935acf,Billy,Trousdell,25
8433734f-3a84-40cf-ae3b-b6b7e6ed173a,Quentin,Marrill,30
6cd512bc-09cf-4339-8364-8ab578b66584,Iorgos,Lefley,23
81c3fe2a-4c66-4660-ba85-1807414a561e,Jackie,Mullender,28
a8c985eb-5b3e-45b0-9815-9cd76fc43d40,Francisco,MacKowle,29
9d945a30-8fe5-4576-b2e3-3ba6b8e19018,Ginger,Francklin,30
62d475d5-eb26-4ddb-b8c5-1b07a7cf9c59,Ferrel,Beamish,20
965d2fd5-3ba3-409f-aaf6-58f4a7e654e3,Noam,Fillis,27
921189a6-9464-4ad6-acd8-ea0e938f7f68,Sophia,Udey,21
2291a099-8fa1-4016-8777-396ff5a6ba20,Livy,Rochford,23
259f6c33-8017-461c-91f4-f89b481ac9b5,Fran,O'Cullen,21
2e2e75c1-5d87-49b6-9c24-2c5c77d97c87,Dru,Lelievre,30
1a401b9e-b7aa-4bd7-be2b-671558000aca,Werner,Frankum,30
b92f3bfc-50f2-436d-a159-b68e611d14fa,Sheelagh,Deer,29
49367c57-1f22-42e9-bc87-6bf887648b89,Sammie,Zapatero,24
34c4e64f-0d3b-4e13-a294-b5221d376983,Francesco,Kinnon,23
cef7fe77-100d-4034-89ac-ebac9fbe4543,Beitris,Pepi,23
dfe2e7bb-7f53-419e-ae02-d6b2a3c309a7,Brod,Balazot,23
6b3a6799-0797-41b9-9f9f-bbcb265241b4,Debbie,Hasslocher,26
23710096-4314-43aa-8bc7-ce9179012689,Norrie,Janaud,30
655cf79d-52e4-4df4-bbea-7641b1a54759,Robbie,Heindle,22
833eb6d5-67a7-4634-bd31-35607ca03a84,Jaine,Zappel,27
ebc9758a-3ed5-4b0c-85db-bc7892eddfda,Shermy,Elkin,25
3e55577d-0b0a-4018-9881-7a9236f725bb,Markus,Pautard,30
16a7b03c-2107-4edb-9201-67bcc4fdcf74,Neile,Lowder,22
e3fb280b-bef1-4bfa-af39-304d2f9a992b,Renate,Rossbrook,27
12ac203b-acc0-4a85-836e-864133768481,Aluin,Scarff,25
88016236-e954-4f54-b259-04fd18bc893d,Jeniffer,Rought,26
c0bd2847-b461-41b3-ae02-f92d7b8cd837,Easter,Salaman,23
d2717d17-106c-49a8-a20d-5fded74016df,Lynnell,Bygate,20
d34e8d43-0a34-4936-88be-fa49d1a7fd2b,Hayes,Bonney,27
5b6029a9-2558-4647-9b22-a5242cac3e58,Lilli,Pigny,21
c3f4c3b9-72e7-4bc5-9343-d0976be58c0b,Nicole,Deevey,28
d1c76f66-1e51-4d79-a3b4-d5927bdb877a,Moises,Lusher,26
9c197683-1962-4584-a49f-1fd3e94565c7,Pasquale,Burchmore,24
c7eaca04-5538-43c8-a1e8-37c37b42d736,Darnell,Endon,20
259a3079-1430-4af9-a754-f624afb23e8d,Chloris,Southgate,24
f48445fc-ab7c-4341-80b7-a7b9544becf4,Gussie,Delyth,29
627e9a62-918c-4330-abed-f53e69764d9f,Alida,Arnhold,27
d3a6ffc0-5bf9-4188-92fb-8cadd93e5d4c,Adriana,Moylan,21
f65d3f61-8041-44b3-862f-0268321c5887,Carmita,Ebbitt,20
e7890b8a-12f6-47c0-a110-752799140fc9,Chloette,Guillart,24
257eb985-2ab5-447b-b75e-4fb724d187c6,Demetrius,O'Bradane,20
244bdd18-41a0-4d0a-a646-ca915ade894e,Ash,Pawfoot,27
e78ebf20-a20a-4a7a-bd6d-cb92ee18f655,Durward,Angric,25
9d0d3971-7385-4159-88ec-62542ccb35dc,Saxon,Vuitte,24
2a169c7f-dffc-4534-b2e6-668679f3bccd,Lazarus,Vaillant,21
1d463280-3cf0-4f07-b6d3-f468cd88dfdf,Frank,Kid,21
79e09c57-d3d7-40c9-9e0e-5892e066b1a9,Bernhard,Coghlan,22
3fd4bfcc-ee05-411a-9196-8819aa23362b,Clemence,Locke,27
